{
    "data": {
        "categories": {
            "href": "https://api.spotify.com/v1/browse/categories?offset=0&limit=20",
            "items": [
                {
                    "href": "https://api.spotify.com/v1/browse/categories/toplists",
                    "icons": [
                        {
                            "height": 275,
                            "url": "https://t.scdn.co/media/derived/toplists_11160599e6a04ac5d6f2757f5511778f_0_0_275_275.jpg",
                            "width": 275
                        }
                    ],
                    "id": "toplists",
                    "name": "Top Lists"
                },
                {
                    "href": "https://api.spotify.com/v1/browse/categories/pop",
                    "icons": [
                        {
                            "height": 274,
                            "url": "https://t.scdn.co/media/derived/pop-274x274_447148649685019f5e2a03a39e78ba52_0_0_274_274.jpg",
                            "width": 274
                        }
                    ],
                    "id": "pop",
                    "name": "Pop"
                },
                {
                    "href": "https://api.spotify.com/v1/browse/categories/equal",
                    "icons": [
                        {
                            "height": null,
                            "url": "https://t.scdn.co/images/084155aeaa724ea1bd393a017d67b709",
                            "width": null
                        }
                    ],
                    "id": "equal",
                    "name": "EQUAL"
                },
                {
                    "href": "https://api.spotify.com/v1/browse/categories/mood",
                    "icons": [
                        {
                            "height": 274,
                            "url": "https://t.scdn.co/media/original/mood-274x274_976986a31ac8c49794cbdc7246fd5ad7_274x274.jpg",
                            "width": 274
                        }
                    ],
                    "id": "mood",
                    "name": "Mood"
                },
                {
                    "href": "https://api.spotify.com/v1/browse/categories/decades",
                    "icons": [
                        {
                            "height": null,
                            "url": "https://t.scdn.co/images/b611cf5145764c64b80e91ccd5f357c8",
                            "width": null
                        }
                    ],
                    "id": "decades",
                    "name": "Decades"
                },
                {
                    "href": "https://api.spotify.com/v1/browse/categories/hiphop",
                    "icons": [
                        {
                            "height": 274,
                            "url": "https://t.scdn.co/media/original/hip-274_0a661854d61e29eace5fe63f73495e68_274x274.jpg",
                            "width": 274
                        }
                    ],
                    "id": "hiphop",
                    "name": "Hip-Hop"
                },
                {
                    "href": "https://api.spotify.com/v1/browse/categories/in_the_car",
                    "icons": [
                        {
                            "height": null,
                            "url": "https://t.scdn.co/images/57017d435c344bb28efba325b7c9e7c6.jpeg",
                            "width": null
                        }
                    ],
                    "id": "in_the_car",
                    "name": "In the car"
                },
                {
                    "href": "https://api.spotify.com/v1/browse/categories/gaming",
                    "icons": [
                        {
                            "height": null,
                            "url": "https://t.scdn.co/images/0d39395309ba47838ef12ce987f19d16.jpeg",
                            "width": null
                        }
                    ],
                    "id": "gaming",
                    "name": "Gaming"
                },
                {
                    "href": "https://api.spotify.com/v1/browse/categories/wellness",
                    "icons": [
                        {
                            "height": null,
                            "url": "https://t.scdn.co/images/3710b68657574bc79df14bd74629e5ac",
                            "width": null
                        }
                    ],
                    "id": "wellness",
                    "name": "Wellness"
                },
                {
                    "href": "https://api.spotify.com/v1/browse/categories/workout",
                    "icons": [
                        {
                            "height": null,
                            "url": "https://t.scdn.co/media/links/workout-274x274.jpg",
                            "width": null
                        }
                    ],
                    "id": "workout",
                    "name": "Workout"
                },
                {
                    "href": "https://api.spotify.com/v1/browse/categories/chill",
                    "icons": [
                        {
                            "height": 274,
                            "url": "https://t.scdn.co/media/derived/chill-274x274_4c46374f007813dd10b37e8d8fd35b4b_0_0_274_274.jpg",
                            "width": 274
                        }
                    ],
                    "id": "chill",
                    "name": "Chill"
                },
                {
                    "href": "https://api.spotify.com/v1/browse/categories/focus",
                    "icons": [
                        {
                            "height": 274,
                            "url": "https://t.scdn.co/media/original/genre-images-square-274x274_5e50d72b846a198fcd2ca9b3aef5f0c8_274x274.jpg",
                            "width": 274
                        }
                    ],
                    "id": "focus",
                    "name": "Focus"
                },
                {
                    "href": "https://api.spotify.com/v1/browse/categories/sleep",
                    "icons": [
                        {
                            "height": 274,
                            "url": "https://t.scdn.co/media/derived/sleep-274x274_0d4f836af8fab7bf31526968073e671c_0_0_274_274.jpg",
                            "width": 274
                        }
                    ],
                    "id": "sleep",
                    "name": "Sleep"
                },
                {
                    "href": "https://api.spotify.com/v1/browse/categories/party",
                    "icons": [
                        {
                            "height": null,
                            "url": "https://t.scdn.co/images/7ee6530d5b3c4acc9a0957046bf11d63",
                            "width": null
                        }
                    ],
                    "id": "party",
                    "name": "Party"
                },
                {
                    "href": "https://api.spotify.com/v1/browse/categories/indie_alt",
                    "icons": [
                        {
                            "height": null,
                            "url": "https://t.scdn.co/images/fe06caf056474bc58862591cd60b57fc.jpeg",
                            "width": null
                        }
                    ],
                    "id": "indie_alt",
                    "name": "Indie"
                },
                {
                    "href": "https://api.spotify.com/v1/browse/categories/metal",
                    "icons": [
                        {
                            "height": 274,
                            "url": "https://t.scdn.co/media/original/metal_27c921443fd0a5ba95b1b2c2ae654b2b_274x274.jpg",
                            "width": 274
                        }
                    ],
                    "id": "metal",
                    "name": "Metal"
                },
                {
                    "href": "https://api.spotify.com/v1/browse/categories/rock",
                    "icons": [
                        {
                            "height": 274,
                            "url": "https://t.scdn.co/media/derived/rock_9ce79e0a4ef901bbd10494f5b855d3cc_0_0_274_274.jpg",
                            "width": 274
                        }
                    ],
                    "id": "rock",
                    "name": "Rock"
                },
                {
                    "href": "https://api.spotify.com/v1/browse/categories/edm_dance",
                    "icons": [
                        {
                            "height": 274,
                            "url": "https://t.scdn.co/media/derived/edm-274x274_0ef612604200a9c14995432994455a6d_0_0_274_274.jpg",
                            "width": 274
                        }
                    ],
                    "id": "edm_dance",
                    "name": "Dance/Electronic"
                },
                {
                    "href": "https://api.spotify.com/v1/browse/categories/dinner",
                    "icons": [
                        {
                            "height": 274,
                            "url": "https://t.scdn.co/media/original/dinner_1b6506abba0ba52c54e6d695c8571078_274x274.jpg",
                            "width": 274
                        }
                    ],
                    "id": "dinner",
                    "name": "Cooking & Dining"
                },
                {
                    "href": "https://api.spotify.com/v1/browse/categories/jazz",
                    "icons": [
                        {
                            "height": null,
                            "url": "https://t.scdn.co/images/568f37f1cab54136939d63bd1f59d40c",
                            "width": null
                        }
                    ],
                    "id": "jazz",
                    "name": "Jazz"
                }
            ],
            "limit": 20,
            "next": "https://api.spotify.com/v1/browse/categories?offset=20&limit=20",
            "offset": 0,
            "previous": null,
            "total": 40
        }
    },
    "status": 200,
    "statusText": "",
    "headers": {
        "cache-control": "public, max-age=600",
        "content-length": "1197",
        "content-type": "application/json; charset=utf-8"
    },
    "config": {
        "transitional": {
            "silentJSONParsing": true,
            "forcedJSONParsing": true,
            "clarifyTimeoutError": false
        },
        "transformRequest": [
            null
        ],
        "transformResponse": [
            null
        ],
        "timeout": 0,
        "xsrfCookieName": "XSRF-TOKEN",
        "xsrfHeaderName": "X-XSRF-TOKEN",
        "maxContentLength": -1,
        "maxBodyLength": -1,
        "headers": {
            "Accept": "application/json, text/plain, */*",
            "Authorization": "Bearer BQBrZr3ozhZuN769BwxmC6KrTa_poJP79qmKN8HSUcnCklWtuPhQFPF7QGUK-J4vY2m1z4rFFdr0VMD5aVM"
        },
        "method": "get",
        "url": "https://api.spotify.com/v1/browse/categories?locale=US"
    },
    "request": {}
}